rad = 8; % 3. rad: the side length of the square window (5-9)
alpha = 0.001; % 4. alpha: the coeficicent to balance the image fidality term and the (0.001-0.3)
num_it = 20; % 5. num_it: maximum number of iterations
epsilon = 1; % 6. epsilon: epsilon used for delta and heaviside function (1)


case 'alpha'
alpha = steps;

Step : 0:0.001:0.1

50 images (1-1) 1-50